Note-stats
…
Data information

library(caret)

Sacramento House price Data

This data frame contains house and sale price data for 932 homes in Sacramento CA. The original data were obtained from the website for the SpatialKey software. From their website: The Sacramento real estate transactions file is a list of 985 real estate transactions in the Sacramento area reported over a five-day period, as reported by the Sacramento Bee. Google was used to fill in missing/incorrect data.

Output: price

data(Sacramento)
(Sacramento <- Sacramento %>% dplyr::select(price,everything()) %>% as_tibble())

## # A tibble: 932 x 9
##    price city         zip     beds baths  sqft type      latitude longitude
##    <int> <fct>        <fct>  <int> <dbl> <int> <fct>        <dbl>     <dbl>
##  1 59222 SACRAMENTO   z95838     2     1   836 Resident     38.6     -121.
##  2 68212 SACRAMENTO   z95823     3     1  1167 Resident     38.5     -121.
##  3 68880 SACRAMENTO   z95815     2     1   796 Resident     38.6     -121.
##  4 69307 SACRAMENTO   z95815     2     1   852 Resident     38.6     -121.
##  5 81900 SACRAMENTO   z95824     2     1   797 Resident     38.5     -121.
##  6 89921 SACRAMENTO   z95841     3     1  1122 Condo         38.7     -121.
##  7 90895 SACRAMENTO   z95842     3     2  1104 Resident     38.7     -121.
##  8 91002 SACRAMENTO   z95820     3     1  1177 Resident     38.5     -121.
##  9 94905 RANCHO_CORD z95670     2     2   941 Condo         38.6     -121.
## 10 98937 RIO_LINDA    z95673     3     2  1146 Resident     38.7     -121.
## #  with 922 more rows

German Credit Data

Data from Dr.Hans Hofmann of the University of Hamburg and stored at the UC Irvine Machine Learning Repository. These data have two classes for the credit worthiness: good or bad. There are predictors related to attributes, such as: checking account status, duration, credit history, purpose of the loan, amount of the loan, savings accounts or bonds, employment duration, Installment rate in percentage of disposable income, personal information, other debtors/guarantors, residence duration, property, age, other installment plans, housing, number of existing credits, job information, Number of people being liable to provide maintenance for, telephone, and foreign worker status. Many of these predictors are discrete and have been expanded into several 0/1 indicator variables

data(GermanCredit)
(GermanCredit <- GermanCredit %>% dplyr::select(Class, everything()) %>% as_tibble())

## # A tibble: 1,000 x 62
##    Class Duration Amount InstallmentRate ResidenceDurati   Age
##    <fct>    <int>  <int>            <int>            <int> <int>
##  1 Good         6   1169                4                4    67
##  2 Bad         48   5951                2                2    22
##  3 Good        12   2096                2                3    49
##  4 Good        42   7882                2                4    45
##  5 Bad         24   4870                3                4    53
##  6 Good        36   9055                2                4    35
##  7 Good        24   2835                3                4    53
##  8 Good        36   6948                2                2    35
##  9 Good        12   3059                2                4    61
## 10 Bad         30   5234                4                2    28
## #  with 990 more rows, and 56 more variables:
## #   NumberExistingCredits <int>, NumberPeopleMaintenance <int>,
## #   Telephone <dbl>, ForeignWorker <dbl>,
## #   CheckingAccountStatus.lt.0 <dbl>,
## #   CheckingAccountStatus.0.to.200 <dbl>,
## #   CheckingAccountStatus.gt.200 <dbl>, CheckingAccountStatus.none <dbl>,
## #   CreditHistory.NoCredit.AllPaid <dbl>,
## #   CreditHistory.ThisBank.AllPaid <dbl>, CreditHistory.PaidDuly <dbl>,
## #   CreditHistory.Delay <dbl>, CreditHistory.Critical <dbl>,
…
# Grid of potential expanatory variable
(GermanCredit.new <- expand.grid(Age = c(21:90)) %>% as_tibble())

## # A tibble: 70 x 1
##      Age
##    <int>
##  1    21
##  2    22
##  3    23
##  4    24
##  5    25
##  6    26
##  7    27
##  8    28
##  9    29
## 10    30
## #  with 60 more rows
…
#Two way ANOVA: Type III F tests: 
joint_tests(Sacramento.emm)
#pairwise dierences, Two groups are NOT signicantly dierent if same letter or number. 
#Tukey adjustment by GermanCredit.
cld(Sacramento.emm)

4. Model Selection

# reset the dataset
data(Sacramento)
(Sacramento <- Sacramento %>% dplyr::select(price, sqft, beds, baths) %>% as_tibble())

## # A tibble: 932 x 4
##    price  sqft  beds baths
##    <int> <int> <int> <dbl>
##  1 59222   836     2     1
##  2 68212  1167     3     1
##  3 68880   796     2     1
##  4 69307   852     2     1
##  5 81900   797     2     1
##  6 89921  1122     3     1
##  7 90895  1104     3     2
##  8 91002  1177     3     1
##  9 94905   941     2     2
## 10 98937  1146     3     2
## #  with 922 more rows
…
