Note-dplyr
…
%>%: x %>% f(y) turns into f(x, y).

as_tibble(): convert data to tibble form.

2.1 Filter Rows with: filter()

filter() allows you to subset observations based on their values. The first argument is the name of the data frame. The second and subsequent arguments are the expressions that filter the data frame.

Format: filter(x,condition,condition)

Commonly used method: Logical Operators (!, &,&&, |, \\, !(x & y), !x | !y), missing value (!is.na())

filter(flights, month == 1, day == 1)

## # A tibble: 842 x 19
##     year month   day dep_time sched_dep_time dep_delay arr_time sched_arr_time
##    <int> <int> <int>    <int>          <int>     <dbl>    <int>          <int>
##  1  2013     1     1      517            515         2      830            819
##  2  2013     1     1      533            529         4      850            830
##  3  2013     1     1      542            540         2      923            850
##  4  2013     1     1      544            545        -1     1004           1022
##  5  2013     1     1      554            600        -6      812            837
##  6  2013     1     1      554            558        -4      740            728
##  7  2013     1     1      555            600        -5      913            854
##  8  2013     1     1      557            600        -3      709            723
##  9  2013     1     1      557            600        -3      838            846
## 10  2013     1     1      558            600        -2      753            745
## #  with 832 more rows, and 11 more variables: arr_delay <dbl>, carrier <chr>,
## #   flight <int>, tailnum <chr>, origin <chr>, dest <chr>, air_time <dbl>,
## #   distance <dbl>, hour <dbl>, minute <dbl>, time_hour <dttm>

filter(flights, month == 11 | month == 12, day == 25) # filter(flights, month %in% c(11, 12), day == 25)

## # A tibble: 1,661 x 19
##     year month   day dep_time sched_dep_time dep_delay arr_time sched_arr_time
##    <int> <int> <int>    <int>          <int>     <dbl>    <int>          <int>
##  1  2013    11    25        5           2359         6      436            445
##  2  2013    11    25      508            500         8      647            651
##  3  2013    11    25      513            515        -2      801            808
##  4  2013    11    25      537            540        -3      827            850
##  5  2013    11    25      542            545        -3      845            835
##  6  2013    11    25      550            600       -10      843            856
##  7  2013    11    25      550            600       -10      647            659
##  8  2013    11    25      551            550         1     1019           1027
##  9  2013    11    25      553            600        -7      657            719
## 10  2013    11    25      553            600        -7      826            846
## #  with 1,651 more rows, and 11 more variables: arr_delay <dbl>,
## #   carrier <chr>, flight <int>, tailnum <chr>, origin <chr>, dest <chr>,
## #   air_time <dbl>, distance <dbl>, hour <dbl>, minute <dbl>, time_hour <dttm>

filter(flights, !is.na(dep_delay), !is.na(arr_delay))

## # A tibble: 327,346 x 19
##     year month   day dep_time sched_dep_time dep_delay arr_time sched_arr_time
##    <int> <int> <int>    <int>          <int>     <dbl>    <int>          <int>
##  1  2013     1     1      517            515         2      830            819
##  2  2013     1     1      533            529         4      850            830
##  3  2013     1     1      542            540         2      923            850
##  4  2013     1     1      544            545        -1     1004           1022
##  5  2013     1     1      554            600        -6      812            837
##  6  2013     1     1      554            558        -4      740            728
##  7  2013     1     1      555            600        -5      913            854
##  8  2013     1     1      557            600        -3      709            723
##  9  2013     1     1      557            600        -3      838            846
## 10  2013     1     1      558            600        -2      753            745
## #  with 327,336 more rows, and 11 more variables: arr_delay <dbl>,
## #   carrier <chr>, flight <int>, tailnum <chr>, origin <chr>, dest <chr>,
## #   air_time <dbl>, distance <dbl>, hour <dbl>, minute <dbl>, time_hour <dttm>

2.2 Arrange Rows with arrange: arrange()

arrange() works similarly to filter() except that instead of selecting rows, it changes their order. It takes a data frame and a set of column names (or more complicated expressions) to order by. If you provide more than one column name, each additional column will be used to break ties in the values of preceding columns.

Format: arrange(x,factor, subfactor,subsubfactor)

Commonly used method: desc()

arrange(flights, year, month, day)

## # A tibble: 336,776 x 19
##     year month   day dep_time sched_dep_time dep_delay arr_time sched_arr_time
##    <int> <int> <int>    <int>          <int>     <dbl>    <int>          <int>
##  1  2013     1     1      517            515         2      830            819
##  2  2013     1     1      533            529         4      850            830
##  3  2013     1     1      542            540         2      923            850
##  4  2013     1     1      544            545        -1     1004           1022
##  5  2013     1     1      554            600        -6      812            837
##  6  2013     1     1      554            558        -4      740            728
##  7  2013     1     1      555            600        -5      913            854
##  8  2013     1     1      557            600        -3      709            723
##  9  2013     1     1      557            600        -3      838            846
## 10  2013     1     1      558            600        -2      753            745
## #  with 336,766 more rows, and 11 more variables: arr_delay <dbl>,
## #   carrier <chr>, flight <int>, tailnum <chr>, origin <chr>, dest <chr>,
## #   air_time <dbl>, distance <dbl>, hour <dbl>, minute <dbl>, time_hour <dttm>

arrange(flights, desc(arr_delay))

## # A tibble: 336,776 x 19
##     year month   day dep_time sched_dep_time dep_delay arr_time sched_arr_time
##    <int> <int> <int>    <int>          <int>     <dbl>    <int>          <int>
##  1  2013     1     9      641            900      1301     1242           1530
##  2  2013     6    15     1432           1935      1137     1607           2120
##  3  2013     1    10     1121           1635      1126     1239           1810
##  4  2013     9    20     1139           1845      1014     1457           2210
##  5  2013     7    22      845           1600      1005     1044           1815
##  6  2013     4    10     1100           1900       960     1342           2211
##  7  2013     3    17     2321            810       911      135           1020
##  8  2013     7    22     2257            759       898      121           1026
##  9  2013    12     5      756           1700       896     1058           2020
## 10  2013     5     3     1133           2055       878     1250           2215
## #  with 336,766 more rows, and 11 more variables: arr_delay <dbl>,
## #   carrier <chr>, flight <int>, tailnum <chr>, origin <chr>, dest <chr>,
## #   air_time <dbl>, distance <dbl>, hour <dbl>, minute <dbl>, time_hour <dttm>

2.3 Select Columns with: select()

select() allows you to rapidly zoom in on a useful subset using operations based on the names of the variables, often narrowing in on the variables youre actually interested in.

Format: select(x,attribute, attribute, attribute)

Commonly used method: Arithmetic Operators (+, -, *, /, ^, %/%, %%), starts_with("abc"), ends_with("xyz"), contains("ijk"), matches("(.)\\1"), num_range("x", 1:3), rename(), everything()

select(flights, year, month, day) # select(flights, year:day)

## # A tibble: 336,776 x 3
##     year month   day
##    <int> <int> <int>
##  1  2013     1     1
##  2  2013     1     1
##  3  2013     1     1
##  4  2013     1     1
##  5  2013     1     1
##  6  2013     1     1
##  7  2013     1     1
##  8  2013     1     1
##  9  2013     1     1
## 10  2013     1     1
## #  with 336,766 more rows

select(flights, -(year:day))

## # A tibble: 336,776 x 16
##    dep_time sched_dep_time dep_delay arr_time sched_arr_time arr_delay carrier
##       <int>          <int>     <dbl>    <int>          <int>     <dbl> <chr>  
##  1      517            515         2      830            819        11 UA     
##  2      533            529         4      850            830        20 UA     
##  3      542            540         2      923            850        33 AA     
##  4      544            545        -1     1004           1022       -18 B6     
##  5      554            600        -6      812            837       -25 DL     
##  6      554            558        -4      740            728        12 UA     
##  7      555            600        -5      913            854        19 B6     
##  8      557            600        -3      709            723       -14 EV     
##  9      557            600        -3      838            846        -8 B6     
## 10      558            600        -2      753            745         8 AA     
## #  with 336,766 more rows, and 9 more variables: flight <int>, tailnum <chr>,
## #   origin <chr>, dest <chr>, air_time <dbl>, distance <dbl>, hour <dbl>,
## #   minute <dbl>, time_hour <dttm>

# rename tailnum by tail_num
rename(flights, tail_num = tailnum)

## # A tibble: 336,776 x 19
##     year month   day dep_time sched_dep_time dep_delay arr_time sched_arr_time
##    <int> <int> <int>    <int>          <int>     <dbl>    <int>          <int>
##  1  2013     1     1      517            515         2      830            819
##  2  2013     1     1      533            529         4      850            830
##  3  2013     1     1      542            540         2      923            850
##  4  2013     1     1      544            545        -1     1004           1022
##  5  2013     1     1      554            600        -6      812            837
##  6  2013     1     1      554            558        -4      740            728
##  7  2013     1     1      555            600        -5      913            854
##  8  2013     1     1      557            600        -3      709            723
##  9  2013     1     1      557            600        -3      838            846
## 10  2013     1     1      558            600        -2      753            745
## #  with 336,766 more rows, and 11 more variables: arr_delay <dbl>,
## #   carrier <chr>, flight <int>, tail_num <chr>, origin <chr>, dest <chr>,
## #   air_time <dbl>, distance <dbl>, hour <dbl>, minute <dbl>, time_hour <dttm>

# move a important attribute column to the start of the data frame
select(flights, time_hour, air_time, everything())

## # A tibble: 336,776 x 19
##    time_hour           air_time  year month   day dep_time sched_dep_time
##    <dttm>                 <dbl> <int> <int> <int>    <int>          <int>
##  1 2013-01-01 05:00:00      227  2013     1     1      517            515
##  2 2013-01-01 05:00:00      227  2013     1     1      533            529
##  3 2013-01-01 05:00:00      160  2013     1     1      542            540
##  4 2013-01-01 05:00:00      183  2013     1     1      544            545
##  5 2013-01-01 06:00:00      116  2013     1     1      554            600
##  6 2013-01-01 05:00:00      150  2013     1     1      554            558
##  7 2013-01-01 06:00:00      158  2013     1     1      555            600
##  8 2013-01-01 06:00:00       53  2013     1     1      557            600
##  9 2013-01-01 06:00:00      140  2013     1     1      557            600
## 10 2013-01-01 06:00:00      138  2013     1     1      558            600
## #  with 336,766 more rows, and 12 more variables: dep_delay <dbl>,
## #   arr_time <int>, sched_arr_time <int>, arr_delay <dbl>, carrier <chr>,
## #   flight <int>, tailnum <chr>, origin <chr>, dest <chr>, distance <dbl>,
## #   hour <dbl>, minute <dbl>

2.4 Add New Variables with: mutate()

mutate() always adds new columns at the end of your dataset so well start by creating a narrower dataset so we can see the new variables.

Format: mutate(x,formula, formula)

Commonly used method: Arithmetic Operators (+, -, *, /, ^, %/%, %%), logs (log(), log2(), log10()), Offsets (lead(), lag()), Cumulative and rolling aggregates (cumsum(), cumprod(), cummin(), cummax()), Logical comparisons (<, <=, >, >=, !=), Ranking (min_rank(), row_number(), dense_rank(), percent_rank(), cume_dist(), ntile())

mutate(flights, 
       gain = arr_delay - dep_delay,
       speed = distance / air_time * 60)

## # A tibble: 336,776 x 21
##     year month   day dep_time sched_dep_time dep_delay arr_time sched_arr_time
##    <int> <int> <int>    <int>          <int>     <dbl>    <int>          <int>
##  1  2013     1     1      517            515         2      830            819
##  2  2013     1     1      533            529         4      850            830
##  3  2013     1     1      542            540         2      923            850
##  4  2013     1     1      544            545        -1     1004           1022
##  5  2013     1     1      554            600        -6      812            837
##  6  2013     1     1      554            558        -4      740            728
##  7  2013     1     1      555            600        -5      913            854
##  8  2013     1     1      557            600        -3      709            723
##  9  2013     1     1      557            600        -3      838            846
## 10  2013     1     1      558            600        -2      753            745
## #  with 336,766 more rows, and 13 more variables: arr_delay <dbl>,
## #   carrier <chr>, flight <int>, tailnum <chr>, origin <chr>, dest <chr>,
## #   air_time <dbl>, distance <dbl>, hour <dbl>, minute <dbl>, time_hour <dttm>,
## #   gain <dbl>, speed <dbl>
…
if(!is.tibble(flights)){as_tibble(flights)} # Convert to a tibble so it prints nicely
   
delays <- flights %>% # Filter outlier instances
  filter(dep_delay > 0) %>% # group by attributes
  group_by(month,tailnum) %>% # summarize instance by attributes
  summarize(count = n(),
            total_delay  = sum(dep_delay,na.rm = TRUE),
            mean_delay = mean(dep_delay,na.rm = TRUE)) %>% # arrange summary with order
  arrange(desc(total_delay))

## `summarise()` regrouping output by 'month' (override with `.groups` argument)

print(delays)

## # A tibble: 31,494 x 5
## # Groups:   month [12]
##    month tailnum count total_delay mean_delay
##    <int> <chr>   <int>       <dbl>      <dbl>
##  1     7 N184JB     29        2257       77.8
##  2     6 N504MQ     12        1889      157. 
##  3     4 N15980     27        1841       68.2
##  4     7 N355JB     34        1823       53.6
##  5     7 N198JB     32        1807       56.5
##  6     3 N16911     26        1802       69.3
##  7    12 N615QX     18        1759       97.7
##  8    12 N11535     17        1706      100. 
##  9     7 N721MQ     27        1703       63.1
## 10     3 N15973     16        1665      104. 
## #  with 31,484 more rows
…
3.3 Grouped Mutates (and Filters)

A grouped filter is a grouped mutate followed by an ungrouped filter.

Format: group_by() %>% filter() %>% mutate()

flights %>% # group by attribute
  group_by(dest) %>% # Find all groups bigger than a threshold
  filter(n() > 365) %>% # Find all instances bigger than zero
  filter(arr_delay > 0) %>% # Standardize to compute per group metrics:
  mutate(prop_delay = arr_delay / sum(arr_delay)) %>%
  select(year:day, dest, arr_delay, prop_delay)

## # A tibble: 131,106 x 6
## # Groups:   dest [77]
##     year month   day dest  arr_delay prop_delay
##    <int> <int> <int> <chr>     <dbl>      <dbl>
##  1  2013     1     1 IAH          11  0.000111 
##  2  2013     1     1 IAH          20  0.000201 
##  3  2013     1     1 MIA          33  0.000235 
##  4  2013     1     1 ORD          12  0.0000424
##  5  2013     1     1 FLL          19  0.0000938
##  6  2013     1     1 ORD           8  0.0000283
##  7  2013     1     1 LAX           7  0.0000344
##  8  2013     1     1 DFW          31  0.000282 
##  9  2013     1     1 ATL          12  0.0000400
## 10  2013     1     1 DTW          16  0.000116 
## #  with 131,096 more rows
…
airports

## # A tibble: 1,458 x 8
##    faa   name                       lat    lon   alt    tz dst   tzone          
##    <chr> <chr>                    <dbl>  <dbl> <dbl> <dbl> <chr> <chr>          
##  1 04G   Lansdowne Airport         41.1  -80.6  1044    -5 A     America/New_Yo
##  2 06A   Moton Field Municipal A  32.5  -85.7   264    -6 A     America/Chicago
##  3 06C   Schaumburg Regional       42.0  -88.1   801    -6 A     America/Chicago
##  4 06N   Randall Airport           41.4  -74.4   523    -5 A     America/New_Yo
##  5 09J   Jekyll Island Airport     31.1  -81.4    11    -5 A     America/New_Yo
##  6 0A9   Elizabethton Municipal   36.4  -82.2  1593    -5 A     America/New_Yo
##  7 0G6   Williams County Airport   41.5  -84.5   730    -5 A     America/New_Yo
##  8 0G7   Finger Lakes Regional A  42.9  -76.8   492    -5 A     America/New_Yo
##  9 0P2   Shoestring Aviation Air  39.8  -76.6  1000    -5 U     America/New_Yo
## 10 0S9   Jefferson County Intl     48.1 -123.    108    -8 A     America/Los_An
## #  with 1,448 more rows

planes 

## # A tibble: 3,322 x 9
##    tailnum  year type          manufacturer   model  engines seats speed engine 
##    <chr>   <int> <chr>         <chr>          <chr>    <int> <int> <int> <chr>  
##  1 N10156   2004 Fixed wing m EMBRAER        EMB-1       2    55    NA Turbo-
##  2 N102UW   1998 Fixed wing m AIRBUS INDUST A320-       2   182    NA Turbo-
##  3 N103US   1999 Fixed wing m AIRBUS INDUST A320-       2   182    NA Turbo-
##  4 N104UW   1999 Fixed wing m AIRBUS INDUST A320-       2   182    NA Turbo-
##  5 N10575   2002 Fixed wing m EMBRAER        EMB-1       2    55    NA Turbo-
##  6 N105UW   1999 Fixed wing m AIRBUS INDUST A320-       2   182    NA Turbo-
##  7 N107US   1999 Fixed wing m AIRBUS INDUST A320-       2   182    NA Turbo-
##  8 N108UW   1999 Fixed wing m AIRBUS INDUST A320-       2   182    NA Turbo-
##  9 N109UW   1999 Fixed wing m AIRBUS INDUST A320-       2   182    NA Turbo-
## 10 N110UW   1999 Fixed wing m AIRBUS INDUST A320-       2   182    NA Turbo-
## #  with 3,312 more rows

weather

## # A tibble: 26,115 x 15
##    origin  year month   day  hour  temp  dewp humid wind_dir wind_speed
##    <chr>  <int> <int> <int> <int> <dbl> <dbl> <dbl>    <dbl>      <dbl>
##  1 EWR     2013     1     1     1  39.0  26.1  59.4      270      10.4 
##  2 EWR     2013     1     1     2  39.0  27.0  61.6      250       8.06
##  3 EWR     2013     1     1     3  39.0  28.0  64.4      240      11.5 
##  4 EWR     2013     1     1     4  39.9  28.0  62.2      250      12.7 
##  5 EWR     2013     1     1     5  39.0  28.0  64.4      260      12.7 
##  6 EWR     2013     1     1     6  37.9  28.0  67.2      240      11.5 
##  7 EWR     2013     1     1     7  39.0  28.0  64.4      240      15.0 
##  8 EWR     2013     1     1     8  39.9  28.0  62.2      250      10.4 
##  9 EWR     2013     1     1     9  39.9  28.0  62.2      260      15.0 
## 10 EWR     2013     1     1    10  41    28.0  59.6      260      13.8 
## #  with 26,105 more rows, and 5 more variables: wind_gust <dbl>, precip <dbl>,
## #   pressure <dbl>, visib <dbl>, time_hour <dttm>
…
