ABE 516 Assignment: Linear Regression
…
n_na <- colSums(!is.na(table))
n <- n_na[n_na>225] %>% names
table_subset <- table[colnames(table) %in% n]

table_subset <- table_subset %>%
  ungroup() %>% 
  rename(Inflationrate = "Inflationrate(consumerprices)") %>% 
  select(-Country) %>% 
  select(-Populationgrowthrate, -Deathrate, -Netmigrationrate) %>% 
  select(Birthrate,everything())
colnames(table_subset) <- gsub("-", "", colnames(table_subset))
table_subset

## # A tibble: 261 x 8
##    Birthrate   Area Population Medianage Laborforce Inflationrate
##        <dbl>  <dbl>      <dbl>     <dbl>      <dbl>         <dbl>
##  1      37.5 6.52e5   34940837      19      8478000           5  
##  2      NA   1.23e2         NA      NA           NA          NA  
##  3      13.2 2.87e4    3057220      33.4    1198000           2  
##  4      21.5 2.38e6   41657488      28.3   11820000           5.6
##  5      19   2.24e2      50826      26.1      17850          -0.5
##  6       7.3 4.68e2      85708      44.9      39750          -0.9
##  7      43.7 1.25e6   30355880      15.9   12510000          29.8
##  8      12.4 9.10e1      17422      35.1       6049           1.3
##  9      NA   1.42e7         NA      NA           NA          NA  
## 10      15.6 4.43e2      95882      32.2      30000           2.5
## #  with 251 more rows, and 2 more variables: Internetusers <dbl>,
## #   Airports <dbl>
…
